aiohttp==3.7.2
aiohttp-jinja2==1.3.0
aiohttp-security==0.4.0
aiohttp-session==2.9.0
aioredis==1.3.1
async-timeout==3.0.1
asyncpg==0.21.0
asyncpgsa==0.26.3
attrs==20.2.0
bcrypt==3.2.0
cffi==1.14.3
chardet==3.0.4
hiredis==1.1.0
idna==2.10
Jinja2==2.11.2
MarkupSafe==1.1.1
multidict==5.0.0
psycopg2-binary==2.8.6
pycparser==2.20
PyYAML==5.3.1
six==1.15.0
SQLAlchemy==1.3.20
typing-extensions==3.7.4.3
yarl==1.6.2
